	estimated	actual
0	2.54845	1.7098843582697414
1	2.7499	2.4778067055644093
2	0.30276	0.4576610411677047
3	0.011418	0.17299604107981625
4	0.6977399999999999	0.5204409120026146
5	2.6468	1.385316545170198
6	0.22155	0.035077166621230005
7	0.41855	0.4341184705193283
8	0.0045017	0.3984563619179952
9	0.076955	0.14371689119275705
10	1.4998200000000002	1.7098843582697414
11	2.6352	2.4778067055644093
12	0.24836	0.4576610411677047
13	1.04768	0.17299604107981625
14	0.92737	0.5204409120026146
15	2.1583	1.385316545170198
16	0.16684000000000002	0.035077166621230005
17	0.49289	0.4341184705193283
18	0.37643	0.3984563619179952
19	0.47588	0.14371689119275705
20	1.2035	1.7098843582697414
21	2.3833	2.4778067055644093
22	0.46204	0.4576610411677047
23	0.13883	0.17299604107981625
24	0.96341	0.5204409120026146
25	1.6147	1.385316545170198
26	0.08032	0.035077166621230005
27	0.41331	0.4341184705193283
28	0.02722	0.3984563619179952
29	0.10034	0.14371689119275705
30	1.92274	1.7098843582697414
31	2.4435	2.4778067055644093
32	0.44383	0.4576610411677047
33	0.06011	0.17299604107981625
34	0.8126899999999999	0.5204409120026146
35	1.5639	1.385316545170198
36	0.14956	0.035077166621230005
37	0.48514	0.4341184705193283
38	0.43253	0.3984563619179952
39	0.11837	0.14371689119275705
40	0.56239	1.7098843582697414
41	2.5238	2.4778067055644093
42	0.11198	0.4576610411677047
43	0.05075	0.17299604107981625
44	0.73948	0.5204409120026146
45	1.5817	1.385316545170198
46	0.30021	0.035077166621230005
47	0.59706	0.4341184705193283
48	0.76757	0.3984563619179952
49	0.014606	0.14371689119275705
50	1.35134	1.7098843582697414
51	2.353	2.4778067055644093
52	0.3598	0.4576610411677047
53	0.28232	0.17299604107981625
54	0.91672	0.5204409120026146
55	1.9719	1.385316545170198
56	0.14901	0.035077166621230005
57	0.49724	0.4341184705193283
58	0.57965	0.3984563619179952
59	0.5496300000000001	0.14371689119275705
60	2.34948	1.7098843582697414
61	2.8013	2.4778067055644093
62	0.31212	0.4576610411677047
63	0.05185	0.17299604107981625
64	0.35431	0.5204409120026146
65	0.5210899999999999	1.385316545170198
66	0.10507	0.035077166621230005
67	0.4771	0.4341184705193283
68	0.51085	0.3984563619179952
69	0.030316000000000006	0.14371689119275705
70	1.92456	1.7098843582697414
71	2.5658	2.4778067055644093
72	0.47157	0.4576610411677047
73	0.26447	0.17299604107981625
74	0.56912	0.5204409120026146
75	1.6275	1.385316545170198
76	0.0661	0.035077166621230005
77	0.36436	0.4341184705193283
78	0.35944	0.3984563619179952
79	0.10465	0.14371689119275705
80		1.7098843582697414
81	2.6413	2.4778067055644093
82	0.79525	0.4576610411677047
83	0.03913	0.17299604107981625
84	0.54371	0.5204409120026146
85		1.385316545170198
86	0.01262	0.035077166621230005
87	0.53956	0.4341184705193283
88	0.5445399999999999	0.3984563619179952
89	0.36098	0.14371689119275705
90	2.09585	1.7098843582697414
91	2.1212	2.4778067055644093
92	0.40901	0.4576610411677047
93	0.17432	0.17299604107981625
94	0.63272	0.5204409120026146
95	1.7572	1.385316545170198
96	0.093575	0.035077166621230005
97	0.49607	0.4341184705193283
98	0.7710600000000001	0.3984563619179952
99	0.029668	0.14371689119275705
100	1.5033299999999998	1.7098843582697414
101	2.7472	2.4778067055644093
102	0.50375	0.4576610411677047
103	0.39034	0.17299604107981625
104	0.49595	0.5204409120026146
105	0.79081	1.385316545170198
106	0.05343	0.035077166621230005
107	0.42458	0.4341184705193283
108	0.14847	0.3984563619179952
109	0.044282	0.14371689119275705
110	1.08245	1.7098843582697414
111	2.4416	2.4778067055644093
112	0.41237	0.4576610411677047
113	0.17444	0.17299604107981625
114	0.33757	0.5204409120026146
115	1.4701	1.385316545170198
116	0.038118	0.035077166621230005
117	0.36542	0.4341184705193283
118	0.31107	0.3984563619179952
119	0.15487	0.14371689119275705
120	1.37609	1.7098843582697414
121	2.3748	2.4778067055644093
122	0.23433	0.4576610411677047
123	1.3908	0.17299604107981625
124	1.2645	0.5204409120026146
125	1.6262	1.385316545170198
126	0.077632	0.035077166621230005
127	0.24821	0.4341184705193283
128	0.09315	0.3984563619179952
129	0.66786	0.14371689119275705
130	1.6642	1.7098843582697414
131	2.4967	2.4778067055644093
132	0.39748	0.4576610411677047
133	0.15500999999999998	0.17299604107981625
134	0.7369	0.5204409120026146
135	2.044	1.385316545170198
136	0.06186000000000001	0.035077166621230005
137	0.23782	0.4341184705193283
138	0.24154	0.3984563619179952
139	0.33971	0.14371689119275705
140	1.8518	1.7098843582697414
141	2.5053	2.4778067055644093
142	0.2604	0.4576610411677047
143	0.0504	0.17299604107981625
144	0.50673	0.5204409120026146
145	1.7247	1.385316545170198
146	0.01805	0.035077166621230005
147	0.33805	0.4341184705193283
148	0.32483	0.3984563619179952
149	0.0018326	0.14371689119275705
150	1.75673	1.7098843582697414
151	2.4991	2.4778067055644093
152	0.4282	0.4576610411677047
153	0.14823	0.17299604107981625
154	0.6409	0.5204409120026146
155	1.2315	1.385316545170198
156	0.07395	0.035077166621230005
157	0.37639	0.4341184705193283
158	0.23088000000000006	0.3984563619179952
159	0.26642	0.14371689119275705
160	2.30693	1.7098843582697414
161	2.9625	2.4778067055644093
162	0.95246	0.4576610411677047
163	0.093516	0.17299604107981625
164	0.09826	0.5204409120026146
165	1.6698	1.385316545170198
166	0.30574	0.035077166621230005
167	0.19175	0.4341184705193283
168	0.15983	0.3984563619179952
169	0.56689	0.14371689119275705
170	1.95837	1.7098843582697414
171	2.7441	2.4778067055644093
172	0.35009	0.4576610411677047
173	0.01024	0.17299604107981625
174	0.63448	0.5204409120026146
175	1.0527	1.385316545170198
176	0.25455	0.035077166621230005
177	0.22397	0.4341184705193283
178	0.37086	0.3984563619179952
179	0.052908	0.14371689119275705
180	1.8632	1.7098843582697414
181	2.7422	2.4778067055644093
182	0.44809	0.4576610411677047
183	0.22846	0.17299604107981625
184	0.80224	0.5204409120026146
185	1.7287	1.385316545170198
186	0.2046	0.035077166621230005
187	0.44057	0.4341184705193283
188	0.36355	0.3984563619179952
189	0.6089	0.14371689119275705
190	1.36465	1.7098843582697414
191	2.6825	2.4778067055644093
192	0.44501	0.4576610411677047
193	0.06089	0.17299604107981625
194	0.40572	0.5204409120026146
195	1.6878	1.385316545170198
196	0.10814	0.035077166621230005
197	0.39734	0.4341184705193283
198	0.43246	0.3984563619179952
199	0.32849	0.14371689119275705
200		1.7098843582697414
201	1.6376	2.4778067055644093
202	0.6653100000000001	0.4576610411677047
203	0.50313	0.17299604107981625
204	1.5771	0.5204409120026146
205	1.4009	1.385316545170198
206	0.08405	0.035077166621230005
207	0.57845	0.4341184705193283
208	1.285	0.3984563619179952
209	0.5199199999999999	0.14371689119275705
210	1.99639	1.7098843582697414
211	2.1688	2.4778067055644093
212	0.29288000000000003	0.4576610411677047
213	0.11206	0.17299604107981625
214	0.7652	0.5204409120026146
215		1.385316545170198
216	0.017481	0.035077166621230005
217	0.5844600000000001	0.4341184705193283
218	0.5816	0.3984563619179952
219	0.18876	0.14371689119275705
220	1.43488	1.7098843582697414
221	2.5889	2.4778067055644093
222	0.45563	0.4576610411677047
223	0.18603	0.17299604107981625
224	0.8262799999999999	0.5204409120026146
225	1.6382	1.385316545170198
226	0.06382	0.035077166621230005
227	0.47195	0.4341184705193283
228	0.41313	0.3984563619179952
229	0.83025	0.14371689119275705
230	1.42945	1.7098843582697414
231	2.2201	2.4778067055644093
232	0.34637	0.4576610411677047
233	0.18554	0.17299604107981625
234	0.99833	0.5204409120026146
235	1.268	1.385316545170198
236	0.02434	0.035077166621230005
237	0.4165100000000001	0.4341184705193283
238	0.6731600000000001	0.3984563619179952
239	0.06654	0.14371689119275705
240	2.77043	1.7098843582697414
241	2.6462	2.4778067055644093
242	0.58067	0.4576610411677047
243	0.71218	0.17299604107981625
244	0.49117	0.5204409120026146
245	1.0719	1.385316545170198
246	0.043943	0.035077166621230005
247	0.7601100000000001	0.4341184705193283
248	0.14717	0.3984563619179952
249	0.1914	0.14371689119275705
250	2.29369	1.7098843582697414
251	2.2658	2.4778067055644093
252	0.6443800000000001	0.4576610411677047
253	0.48711	0.17299604107981625
254	0.39656	0.5204409120026146
255	1.4689	1.385316545170198
256	0.1036	0.035077166621230005
257	0.44462	0.4341184705193283
258	0.5474899999999999	0.3984563619179952
259	0.17104	0.14371689119275705
260	1.33207	1.7098843582697414
261	2.3305	2.4778067055644093
262	0.48921	0.4576610411677047
263	0.56392	0.17299604107981625
264	0.57334	0.5204409120026146
265	0.96193	1.385316545170198
266	0.04622	0.035077166621230005
267	0.45664	0.4341184705193283
268	0.04453	0.3984563619179952
269	0.30179	0.14371689119275705
270	1.50954	1.7098843582697414
271	2.4002	2.4778067055644093
272	0.56535	0.4576610411677047
273	0.082441	0.17299604107981625
274	0.39772	0.5204409120026146
275	1.0794	1.385316545170198
276	0.11632	0.035077166621230005
277	0.56334	0.4341184705193283
278	0.44883	0.3984563619179952
279	0.18981	0.14371689119275705
280	1.70711	1.7098843582697414
281	2.4801	2.4778067055644093
282	0.32789	0.4576610411677047
283	0.6753399999999999	0.17299604107981625
284	0.3055	0.5204409120026146
285	0.11695	1.385316545170198
286	0.17112	0.035077166621230005
287	0.53223	0.4341184705193283
288	0.22885	0.3984563619179952
289	0.49182	0.14371689119275705
290	2.93188	1.7098843582697414
291	2.8221	2.4778067055644093
292	0.27466	0.4576610411677047
293	0.6029800000000001	0.17299604107981625
294	0.34301	0.5204409120026146
295	1.2125	1.385316545170198
296	0.1708	0.035077166621230005
297	0.3961	0.4341184705193283
298	0.071996	0.3984563619179952
299	0.19662	0.14371689119275705
300	1.76524	1.7098843582697414
301	2.1312	2.4778067055644093
302	0.40526	0.4576610411677047
303	0.15488	0.17299604107981625
304	0.52058	0.5204409120026146
305	0.51639	1.385316545170198
306	0.12196	0.035077166621230005
307	0.26507	0.4341184705193283
308	0.12734	0.3984563619179952
309	0.23948000000000005	0.14371689119275705
310	1.57341	1.7098843582697414
311	2.3156	2.4778067055644093
312	0.52183	0.4576610411677047
313	0.34538	0.17299604107981625
314	0.4906	0.5204409120026146
315	1.682	1.385316545170198
316	0.12739	0.035077166621230005
317	0.4557600000000001	0.4341184705193283
318	0.46596	0.3984563619179952
319	0.43513	0.14371689119275705
320	2.30768	1.7098843582697414
321	2.3373	2.4778067055644093
322	0.79962	0.4576610411677047
323	0.63846	0.17299604107981625
324	0.71925	0.5204409120026146
325		1.385316545170198
326	0.011826	0.035077166621230005
327	0.34406	0.4341184705193283
328	0.34561	0.3984563619179952
329	0.11703	0.14371689119275705
330	1.18987	1.7098843582697414
331	2.9322	2.4778067055644093
332	0.26263000000000003	0.4576610411677047
333	0.13833	0.17299604107981625
334	0.08065499999999999	0.5204409120026146
335	1.7088	1.385316545170198
336	0.08523	0.035077166621230005
337	0.56602	0.4341184705193283
338	0.72725	0.3984563619179952
339	0.47261	0.14371689119275705
340	1.86795	1.7098843582697414
341	2.5749	2.4778067055644093
342	0.38922	0.4576610411677047
343	0.27065	0.17299604107981625
344	0.7761	0.5204409120026146
345	1.1523	1.385316545170198
346	0.024214	0.035077166621230005
347	0.40209	0.4341184705193283
348	0.16602999999999998	0.3984563619179952
349	0.12466	0.14371689119275705
350		1.7098843582697414
351	2.2323	2.4778067055644093
352	0.38265	0.4576610411677047
353	0.29295	0.17299604107981625
354	0.53471	0.5204409120026146
355	1.6364	1.385316545170198
356	0.070979	0.035077166621230005
357	0.39547	0.4341184705193283
358	0.35377	0.3984563619179952
359	0.16727999999999998	0.14371689119275705
360	0.43641	1.7098843582697414
361	2.273	2.4778067055644093
362	0.47419	0.4576610411677047
363	0.8835	0.17299604107981625
364	1.0968	0.5204409120026146
365	1.9243	1.385316545170198
366	0.16409	0.035077166621230005
367	0.37055	0.4341184705193283
368	0.08295	0.3984563619179952
369	0.2011	0.14371689119275705
370	1.82338	1.7098843582697414
371	2.213	2.4778067055644093
372	0.26025	0.4576610411677047
373	0.069413	0.17299604107981625
374	0.54346	0.5204409120026146
375	0.90781	1.385316545170198
376	0.046861	0.035077166621230005
377	0.26855	0.4341184705193283
378	0.44419	0.3984563619179952
379	0.33784000000000003	0.14371689119275705
380	1.7054900000000002	1.7098843582697414
381	2.5461	2.4778067055644093
382	0.38436	0.4576610411677047
383	0.0083824	0.17299604107981625
384	0.5876100000000001	0.5204409120026146
385	1.9011	1.385316545170198
386	0.07393999999999999	0.035077166621230005
387	0.51832	0.4341184705193283
388	0.45714	0.3984563619179952
389	0.05944	0.14371689119275705
390	1.8855	1.7098843582697414
391	2.6876	2.4778067055644093
392	0.28727	0.4576610411677047
393	0.18893	0.17299604107981625
394	0.79884	0.5204409120026146
395	1.6078	1.385316545170198
396	0.20128	0.035077166621230005
397	0.59332	0.4341184705193283
398	0.18827	0.3984563619179952
399	0.31611	0.14371689119275705
400	0.8610700000000001	1.7098843582697414
401	2.7125	2.4778067055644093
402	0.29811	0.4576610411677047
403	0.29333000000000004	0.17299604107981625
404	0.8405799999999999	0.5204409120026146
405	2.4597	1.385316545170198
406	0.09422	0.035077166621230005
407	0.6352399999999999	0.4341184705193283
408	0.084842	0.3984563619179952
409	0.31453000000000003	0.14371689119275705
410	0.77471	1.7098843582697414
411	2.6255	2.4778067055644093
412	0.4825100000000001	0.4576610411677047
413	0.31342	0.17299604107981625
414	0.60688	0.5204409120026146
415	0.87731	1.385316545170198
416	0.059305	0.035077166621230005
417	0.38036	0.4341184705193283
418	0.20175	0.3984563619179952
419	0.42099	0.14371689119275705
420	2.30335	1.7098843582697414
421	2.6168	2.4778067055644093
422	0.46914	0.4576610411677047
423	0.08192	0.17299604107981625
424	0.55757	0.5204409120026146
425	1.0119	1.385316545170198
426	0.083926	0.035077166621230005
427	0.40592	0.4341184705193283
428	0.5376	0.3984563619179952
429	0.08372	0.14371689119275705
430	1.48339	1.7098843582697414
431	2.6538	2.4778067055644093
432	0.66152	0.4576610411677047
433	0.24066	0.17299604107981625
434	0.71758	0.5204409120026146
435	1.5879	1.385316545170198
436	0.0096	0.035077166621230005
437	0.47767	0.4341184705193283
438	0.17754	0.3984563619179952
439	0.17154	0.14371689119275705
440		1.7098843582697414
441	1.9042	2.4778067055644093
442	0.45146	0.4576610411677047
443	0.013606	0.17299604107981625
444	0.73258	0.5204409120026146
445	0.98552	1.385316545170198
446	0.0092504	0.035077166621230005
447	0.19912	0.4341184705193283
448	0.51473	0.3984563619179952
449	0.069151	0.14371689119275705
450	1.59704	1.7098843582697414
451	2.1701	2.4778067055644093
452	0.6346	0.4576610411677047
453	0.016155000000000003	0.17299604107981625
454	0.6457	0.5204409120026146
455	1.1528	1.385316545170198
456	0.18104	0.035077166621230005
457	0.3457	0.4341184705193283
458	0.2546	0.3984563619179952
459	0.46922	0.14371689119275705
460	1.55161	1.7098843582697414
461	2.3754	2.4778067055644093
462	0.42895	0.4576610411677047
463	0.32461	0.17299604107981625
464	0.83809	0.5204409120026146
465	0.8309700000000001	1.385316545170198
466	0.26685	0.035077166621230005
467	0.393	0.4341184705193283
468	0.17920999999999998	0.3984563619179952
469	0.18164	0.14371689119275705
470	1.6693	1.7098843582697414
471	2.3849	2.4778067055644093
472	0.43539	0.4576610411677047
473	0.07181	0.17299604107981625
474	0.8083899999999999	0.5204409120026146
475	1.1955	1.385316545170198
476	0.04614	0.035077166621230005
477	0.38635	0.4341184705193283
478	0.24339	0.3984563619179952
479	0.2348	0.14371689119275705
480		1.7098843582697414
481	2.5886	2.4778067055644093
482	0.32033	0.4576610411677047
483	0.62754	0.17299604107981625
484	0.58553	0.5204409120026146
485		1.385316545170198
486	0.09878	0.035077166621230005
487	0.42131	0.4341184705193283
488	0.50579	0.3984563619179952
489	0.5522100000000001	0.14371689119275705
490	1.922	1.7098843582697414
491	2.1898	2.4778067055644093
492	0.25488	0.4576610411677047
493	0.11904	0.17299604107981625
494	0.56533	0.5204409120026146
495		1.385316545170198
496	0.16995	0.035077166621230005
497	0.37221	0.4341184705193283
498	0.25745	0.3984563619179952
499	0.16144	0.14371689119275705
500	1.67875	1.7098843582697414
501	2.3624	2.4778067055644093
502	0.44152	0.4576610411677047
503	0.12649000000000002	0.17299604107981625
504	0.23958	0.5204409120026146
505	1.1617	1.385316545170198
506	0.14637	0.035077166621230005
507	0.38244	0.4341184705193283
508	0.42648	0.3984563619179952
509	0.18563	0.14371689119275705
510	1.4331	1.7098843582697414
511	2.6581	2.4778067055644093
512	0.48245	0.4576610411677047
513	0.49667	0.17299604107981625
514	0.64922	0.5204409120026146
515	1.8457	1.385316545170198
516	0.05045	0.035077166621230005
517	0.25318	0.4341184705193283
518	0.36296	0.3984563619179952
519	0.24014	0.14371689119275705
520	1.84573	1.7098843582697414
521	2.4556	2.4778067055644093
522	0.6859	0.4576610411677047
523	0.27997	0.17299604107981625
524	0.41321	0.5204409120026146
525	1.2619	1.385316545170198
526	0.16333	0.035077166621230005
527	0.25308	0.4341184705193283
528	0.41004	0.3984563619179952
529	0.70941	0.14371689119275705
530	1.5530000000000002	1.7098843582697414
531	2.8889	2.4778067055644093
532	0.52182	0.4576610411677047
533	0.006563200000000001	0.17299604107981625
534	0.59792	0.5204409120026146
535	1.9698	1.385316545170198
536	0.0732	0.035077166621230005
537	0.43681	0.4341184705193283
538	0.25376	0.3984563619179952
539	0.071543	0.14371689119275705
540	2.29407	1.7098843582697414
541	2.4614	2.4778067055644093
542	0.31749	0.4576610411677047
543	0.11587	0.17299604107981625
544	0.94205	0.5204409120026146
545	2.41	1.385316545170198
546	0.044987	0.035077166621230005
547	0.43302	0.4341184705193283
548	0.35307	0.3984563619179952
549	0.0015034	0.14371689119275705
550	2.16535	1.7098843582697414
551	2.6198	2.4778067055644093
552	0.37667	0.4576610411677047
553	0.1306	0.17299604107981625
554	0.4718	0.5204409120026146
555	0.95808	1.385316545170198
556	0.062355	0.035077166621230005
557	0.36937	0.4341184705193283
558	0.3804	0.3984563619179952
559	0.02469	0.14371689119275705
560		1.7098843582697414
561	3.2059	2.4778067055644093
562	0.098945	0.4576610411677047
563	0.8075899999999999	0.17299604107981625
564	0.27918000000000004	0.5204409120026146
565	1.3086	1.385316545170198
566	0.23499	0.035077166621230005
567	0.5441699999999999	0.4341184705193283
568	0.44812	0.3984563619179952
569	0.35173000000000004	0.14371689119275705
570	2.13801	1.7098843582697414
571	2.6491	2.4778067055644093
572	0.22781	0.4576610411677047
573	0.29653	0.17299604107981625
574	0.5598	0.5204409120026146
575	0.9283	1.385316545170198
576	0.05385	0.035077166621230005
577	0.43139	0.4341184705193283
578	0.41777	0.3984563619179952
579	0.38631	0.14371689119275705
580	1.72315	1.7098843582697414
581	2.7937	2.4778067055644093
582	0.39308	0.4576610411677047
583	0.12391	0.17299604107981625
584	0.1747	0.5204409120026146
585	1.4492	1.385316545170198
586	0.04216	0.035077166621230005
587	0.36591	0.4341184705193283
588	0.41913	0.3984563619179952
589	0.052469000000000016	0.14371689119275705
590	1.79045	1.7098843582697414
591	2.5543	2.4778067055644093
592	0.29548	0.4576610411677047
593	0.0588	0.17299604107981625
594	0.43949	0.5204409120026146
595	1.7502	1.385316545170198
596	0.051564	0.035077166621230005
597	0.40818	0.4341184705193283
598	0.097554	0.3984563619179952
599	0.00805	0.14371689119275705
600	1.60583	1.7098843582697414
601	2.714	2.4778067055644093
602	0.8923700000000001	0.4576610411677047
603	0.02479	0.17299604107981625
604	0.026930000000000003	0.5204409120026146
605		1.385316545170198
606	0.07757	0.035077166621230005
607	0.67284	0.4341184705193283
608	0.65978	0.3984563619179952
609	0.45333	0.14371689119275705
610	1.40776	1.7098843582697414
611	2.7392	2.4778067055644093
612	0.27558	0.4576610411677047
613	0.58168	0.17299604107981625
614	0.36815	0.5204409120026146
615	0.90796	1.385316545170198
616	0.029218	0.035077166621230005
617	0.50025	0.4341184705193283
618	0.58595	0.3984563619179952
619	0.1173	0.14371689119275705
620	2.45722	1.7098843582697414
621	2.5055	2.4778067055644093
622	0.20006	0.4576610411677047
623	0.014130000000000004	0.17299604107981625
624	0.6179899999999999	0.5204409120026146
625	1.9158	1.385316545170198
626	0.049785	0.035077166621230005
627	0.25328	0.4341184705193283
628	0.8639100000000001	0.3984563619179952
629	0.40723	0.14371689119275705
630	1.28271	1.7098843582697414
631	2.5177	2.4778067055644093
632	0.51664	0.4576610411677047
633	0.14714000000000002	0.17299604107981625
634	0.32692	0.5204409120026146
635	1.4909	1.385316545170198
636	0.062175	0.035077166621230005
637	0.467	0.4341184705193283
638	0.46738	0.3984563619179952
639	0.46992	0.14371689119275705
640		1.7098843582697414
641	2.4122	2.4778067055644093
642	0.36961	0.4576610411677047
643	0.29151	0.17299604107981625
644	0.28548	0.5204409120026146
645	0.0788	1.385316545170198
646	0.04964	0.035077166621230005
647	0.29204	0.4341184705193283
648	0.14451	0.3984563619179952
649	0.29652	0.14371689119275705
650	1.3903	1.7098843582697414
651	2.3324	2.4778067055644093
652	0.4929	0.4576610411677047
653	0.69066	0.17299604107981625
654	0.78498	0.5204409120026146
655	1.9496	1.385316545170198
656	0.09753	0.035077166621230005
657	0.26581	0.4341184705193283
658	0.7559	0.3984563619179952
659	0.29289	0.14371689119275705
660	0.8416799999999999	1.7098843582697414
661	2.5561	2.4778067055644093
662	0.22564	0.4576610411677047
663	0.081339	0.17299604107981625
664	0.47367	0.5204409120026146
665	1.5919	1.385316545170198
666	0.09451	0.035077166621230005
667	0.33441	0.4341184705193283
668	0.93614	0.3984563619179952
669	0.29498	0.14371689119275705
670	1.85547	1.7098843582697414
671	2.4209	2.4778067055644093
672	0.38394	0.4576610411677047
673	0.1883	0.17299604107981625
674	0.67214	0.5204409120026146
675	1.4147	1.385316545170198
676	0.0993	0.035077166621230005
677	0.48129	0.4341184705193283
678	0.74668	0.3984563619179952
679	0.19592	0.14371689119275705
680		1.7098843582697414
681	2.3382	2.4778067055644093
682	0.31522	0.4576610411677047
683	0.0066711	0.17299604107981625
684	0.032151	0.5204409120026146
685		1.385316545170198
686	0.12514	0.035077166621230005
687	0.43677	0.4341184705193283
688	0.11684	0.3984563619179952
689	0.13885	0.14371689119275705
690		1.7098843582697414
691	2.7510000000000003	2.4778067055644093
692	0.4857800000000001	0.4576610411677047
693	0.13946	0.17299604107981625
694	0.42762	0.5204409120026146
695	1.5617	1.385316545170198
696	0.33446	0.035077166621230005
697	0.23482	0.4341184705193283
698	0.48531	0.3984563619179952
699	0.38689	0.14371689119275705
700	1.7720599999999995	1.7098843582697414
701	2.6431	2.4778067055644093
702	0.6605800000000001	0.4576610411677047
703	0.30469	0.17299604107981625
704	0.28582	0.5204409120026146
705	1.8343	1.385316545170198
706	0.013621	0.035077166621230005
707	0.32206	0.4341184705193283
708	0.16462000000000002	0.3984563619179952
709	0.1862	0.14371689119275705
710	2.0361700000000003	1.7098843582697414
711	2.2404	2.4778067055644093
712	0.38095	0.4576610411677047
713	0.08904	0.17299604107981625
714	0.83041	0.5204409120026146
715	1.4946	1.385316545170198
716	0.066637	0.035077166621230005
717	0.29626	0.4341184705193283
718	0.45108	0.3984563619179952
719	0.27782	0.14371689119275705
720	1.26179	1.7098843582697414
721	2.4597	2.4778067055644093
722	0.46568	0.4576610411677047
723	0.099487	0.17299604107981625
724	1.227	0.5204409120026146
725		1.385316545170198
726	0.35533000000000003	0.035077166621230005
727	0.28835	0.4341184705193283
728	0.06127000000000001	0.3984563619179952
729	0.17772000000000002	0.14371689119275705
730	1.77853	1.7098843582697414
731	2.3498	2.4778067055644093
732	0.79999	0.4576610411677047
733	1.16697	0.17299604107981625
734	0.8194600000000001	0.5204409120026146
735	1.5219999999999998	1.385316545170198
736	0.095021	0.035077166621230005
737	0.40274	0.4341184705193283
738	0.12354	0.3984563619179952
739	0.16374	0.14371689119275705
740		1.7098843582697414
741	2.548	2.4778067055644093
742	0.54748	0.4576610411677047
743	0.092938	0.17299604107981625
744	0.79832	0.5204409120026146
745	1.4325	1.385316545170198
746	0.11676	0.035077166621230005
747	0.32966	0.4341184705193283
748	0.35638000000000003	0.3984563619179952
749	0.35519	0.14371689119275705
750	1.13239	1.7098843582697414
751	2.6642	2.4778067055644093
752	0.34638	0.4576610411677047
753	0.16161	0.17299604107981625
754	0.8490700000000001	0.5204409120026146
755	1.7678	1.385316545170198
756	0.12979000000000002	0.035077166621230005
757	0.43883	0.4341184705193283
758	0.38741	0.3984563619179952
759	0.21521	0.14371689119275705
760		1.7098843582697414
761	2.2045	2.4778067055644093
762	0.6400600000000001	0.4576610411677047
763	0.60292	0.17299604107981625
764	0.42282	0.5204409120026146
765	1.6122	1.385316545170198
766	0.29334	0.035077166621230005
767	0.65923	0.4341184705193283
768	0.37998	0.3984563619179952
769	0.72556	0.14371689119275705
770	2.05576	1.7098843582697414
771	2.7028	2.4778067055644093
772	0.38613	0.4576610411677047
773	0.06790800000000001	0.17299604107981625
774	0.67551	0.5204409120026146
775	2.3933	1.385316545170198
776	0.10451	0.035077166621230005
777	0.4477100000000001	0.4341184705193283
778	0.10778	0.3984563619179952
779	0.28895	0.14371689119275705
780	1.72495	1.7098843582697414
781	2.4701	2.4778067055644093
782	0.4628	0.4576610411677047
783	0.19535	0.17299604107981625
784	0.6712199999999999	0.5204409120026146
785	1.6984	1.385316545170198
786	0.15295	0.035077166621230005
787	0.43763	0.4341184705193283
788	0.46004	0.3984563619179952
789	0.2311	0.14371689119275705
790	2.09248	1.7098843582697414
791	2.4465	2.4778067055644093
792	0.5237	0.4576610411677047
793	0.43026	0.17299604107981625
794	0.56857	0.5204409120026146
795	1.561	1.385316545170198
796	0.09117	0.035077166621230005
797	0.44564	0.4341184705193283
798	0.093735	0.3984563619179952
799	0.14238	0.14371689119275705
800	2.08142	1.7098843582697414
801	1.9926	2.4778067055644093
802	0.52382	0.4576610411677047
803	0.48464	0.17299604107981625
804	1.2207	0.5204409120026146
805		1.385316545170198
806	0.018009999999999998	0.035077166621230005
807	0.33009	0.4341184705193283
808	0.67606	0.3984563619179952
809	0.23024	0.14371689119275705
810	1.6454	1.7098843582697414
811	2.6421	2.4778067055644093
812	0.7984100000000001	0.4576610411677047
813	0.43793	0.17299604107981625
814	0.22721	0.5204409120026146
815	1.5764	1.385316545170198
816	0.10999	0.035077166621230005
817	0.35944	0.4341184705193283
818	0.64741	0.3984563619179952
819	0.65155	0.14371689119275705
820	2.76775	1.7098843582697414
821	2.7577	2.4778067055644093
822	0.42821	0.4576610411677047
823	0.49295	0.17299604107981625
824	1.2563	0.5204409120026146
825	1.4685	1.385316545170198
826	0.049019	0.035077166621230005
827	0.45496	0.4341184705193283
828	0.20479	0.3984563619179952
829	0.25951	0.14371689119275705
830	1.05199	1.7098843582697414
831	2.2945	2.4778067055644093
832	0.35236	0.4576610411677047
833	0.19873	0.17299604107981625
834	0.8212	0.5204409120026146
835	1.2232	1.385316545170198
836	0.10678	0.035077166621230005
837	0.39737	0.4341184705193283
838	0.25491	0.3984563619179952
839	0.0018117	0.14371689119275705
840	2.2391400000000004	1.7098843582697414
841	2.8029	2.4778067055644093
842	0.33297	0.4576610411677047
843	0.45996	0.17299604107981625
844		0.5204409120026146
845		1.385316545170198
846	0.37082	0.035077166621230005
847	0.37475	0.4341184705193283
848	0.088995	0.3984563619179952
849	0.25522	0.14371689119275705
850	1.4128	1.7098843582697414
851	2.4735	2.4778067055644093
852	0.38987	0.4576610411677047
853	0.10857	0.17299604107981625
854	0.52888	0.5204409120026146
855	1.5085	1.385316545170198
856	0.39932	0.035077166621230005
857	0.47071	0.4341184705193283
858	0.28438	0.3984563619179952
859	0.17364000000000002	0.14371689119275705
860	1.83372	1.7098843582697414
861	2.2553	2.4778067055644093
862	0.55558	0.4576610411677047
863	0.09634	0.17299604107981625
864	0.62636	0.5204409120026146
865	0.96123	1.385316545170198
866	0.03038	0.035077166621230005
867	0.58735	0.4341184705193283
868	0.35838000000000003	0.3984563619179952
869	0.17936	0.14371689119275705
870	1.5267	1.7098843582697414
871	2.3124	2.4778067055644093
872	0.33797	0.4576610411677047
873	0.016609	0.17299604107981625
874	0.55469	0.5204409120026146
875	0.94653	1.385316545170198
876	0.02795	0.035077166621230005
877	0.51905	0.4341184705193283
878	0.64248	0.3984563619179952
879	0.092961	0.14371689119275705
880	2.75348	1.7098843582697414
881	2.8342	2.4778067055644093
882	0.89302	0.4576610411677047
883	0.0902	0.17299604107981625
884	0.23731	0.5204409120026146
885	1.3807	1.385316545170198
886	0.14453	0.035077166621230005
887	0.61837	0.4341184705193283
888	0.25795	0.3984563619179952
889	0.11277	0.14371689119275705
890	2.60536	1.7098843582697414
891	2.6086	2.4778067055644093
892	0.61933	0.4576610411677047
893	0.34246	0.17299604107981625
894	0.6681699999999999	0.5204409120026146
895	1.4509999999999998	1.385316545170198
896	0.14215999999999998	0.035077166621230005
897	0.45839	0.4341184705193283
898	0.32309	0.3984563619179952
899	0.19986	0.14371689119275705
900	1.33895	1.7098843582697414
901	2.6373	2.4778067055644093
902	0.33367	0.4576610411677047
903	0.15200999999999998	0.17299604107981625
904	0.6339199999999999	0.5204409120026146
905	1.2736	1.385316545170198
906	0.08157	0.035077166621230005
907	0.41609	0.4341184705193283
908	0.30808	0.3984563619179952
909	0.32303000000000004	0.14371689119275705
910	2.00997	1.7098843582697414
911	2.258	2.4778067055644093
912	0.32264	0.4576610411677047
913	0.18747	0.17299604107981625
914	0.4762	0.5204409120026146
915	1.3246	1.385316545170198
916	0.053070000000000006	0.035077166621230005
917	0.4784	0.4341184705193283
918	0.54398	0.3984563619179952
919	0.61469	0.14371689119275705
920		1.7098843582697414
921	2.3402	2.4778067055644093
922	1.0223	0.4576610411677047
923	0.82639	0.17299604107981625
924	0.3074	0.5204409120026146
925		1.385316545170198
926	0.5071399999999999	0.035077166621230005
927	0.50951	0.4341184705193283
928	0.22579	0.3984563619179952
929	0.5028699999999999	0.14371689119275705
930	1.2839	1.7098843582697414
931	2.437	2.4778067055644093
932	0.52203	0.4576610411677047
933	0.44869	0.17299604107981625
934	0.12305	0.5204409120026146
935	1.2011	1.385316545170198
936	0.17188	0.035077166621230005
937	0.37219	0.4341184705193283
938	0.38681	0.3984563619179952
939	0.20731	0.14371689119275705
940	1.62758	1.7098843582697414
941	2.3721	2.4778067055644093
942	0.56722	0.4576610411677047
943	0.04587	0.17299604107981625
944	0.25536	0.5204409120026146
945	1.5152	1.385316545170198
946	0.04698	0.035077166621230005
947	0.36014	0.4341184705193283
948	0.27214	0.3984563619179952
949	0.09664	0.14371689119275705
950	1.92043	1.7098843582697414
951	2.5044	2.4778067055644093
952	0.38956	0.4576610411677047
953	0.54023	0.17299604107981625
954	0.59443	0.5204409120026146
955	1.8387	1.385316545170198
956	0.47212	0.035077166621230005
957	0.34648	0.4341184705193283
958	0.45302	0.3984563619179952
959	0.06489	0.14371689119275705
960	1.4801799999999998	1.7098843582697414
961	1.9946	2.4778067055644093
962	0.65661	0.4576610411677047
963	0.20183	0.17299604107981625
964	0.24551	0.5204409120026146
965	0.77799	1.385316545170198
966	0.2411	0.035077166621230005
967	0.40659	0.4341184705193283
968	0.023614	0.3984563619179952
969	1.3989	0.14371689119275705
970	1.27444	1.7098843582697414
971	2.7164	2.4778067055644093
972	0.24141	0.4576610411677047
973	0.30462	0.17299604107981625
974	0.49814	0.5204409120026146
975	2.4952	1.385316545170198
976	0.19914	0.035077166621230005
977	0.48744	0.4341184705193283
978	0.38119	0.3984563619179952
979	0.40058	0.14371689119275705
980	1.51686	1.7098843582697414
981	2.3688	2.4778067055644093
982	0.52391	0.4576610411677047
983	0.19441	0.17299604107981625
984	0.98984	0.5204409120026146
985	1.3803	1.385316545170198
986	0.18729	0.035077166621230005
987	0.51173	0.4341184705193283
988	0.75063	0.3984563619179952
989	0.21557	0.14371689119275705
990	1.2279	1.7098843582697414
991	2.3818	2.4778067055644093
992	0.50721	0.4576610411677047
993	0.15534	0.17299604107981625
994	0.64953	0.5204409120026146
995	1.2822	1.385316545170198
996	0.01123	0.035077166621230005
997	0.46037	0.4341184705193283
998	0.56523	0.3984563619179952
999	0.2838	0.14371689119275705
1000	2.41605	1.7098843582697414
1001	2.1926	2.4778067055644093
1002	0.69417	0.4576610411677047
1003	0.33307	0.17299604107981625
1004	0.28485	0.5204409120026146
1005	1.4569	1.385316545170198
1006	0.039932	0.035077166621230005
1007	0.34543	0.4341184705193283
1008	1.2591	0.3984563619179952
1009	0.52135	0.14371689119275705
1010	1.7695	1.7098843582697414
1011	2.4187	2.4778067055644093
1012	0.42476	0.4576610411677047
1013	0.18116	0.17299604107981625
1014	0.49728	0.5204409120026146
1015	2.4117	1.385316545170198
1016	0.26	0.035077166621230005
1017	0.21522	0.4341184705193283
1018	0.58928	0.3984563619179952
1019	0.099864	0.14371689119275705
1020	1.97437	1.7098843582697414
1021	2.3378	2.4778067055644093
1022	0.45774	0.4576610411677047
1023	0.37797	0.17299604107981625
1024	0.68789	0.5204409120026146
1025	1.4474	1.385316545170198
1026	0.21681	0.035077166621230005
1027	0.36844	0.4341184705193283
1028	1.4946	0.3984563619179952
1029	0.20447	0.14371689119275705
1030	1.61363	1.7098843582697414
1031	2.4645	2.4778067055644093
1032	0.4194	0.4576610411677047
1033	0.5100899999999999	0.17299604107981625
1034	0.58358	0.5204409120026146
1035	1.8312	1.385316545170198
1036	0.11232	0.035077166621230005
1037	0.46751	0.4341184705193283
1038	0.4029	0.3984563619179952
1039	0.06834	0.14371689119275705
1040	1.29319	1.7098843582697414
1041	2.1067	2.4778067055644093
1042	0.26992	0.4576610411677047
1043	0.12678	0.17299604107981625
1044	0.46183	0.5204409120026146
1045	1.1358	1.385316545170198
1046	0.17413	0.035077166621230005
1047	0.4832	0.4341184705193283
1048	0.06657	0.3984563619179952
1049	0.095168	0.14371689119275705
1050		1.7098843582697414
1051	2.5563	2.4778067055644093
1052	0.46513	0.4576610411677047
1053	0.80829	0.17299604107981625
1054	0.83414	0.5204409120026146
1055	1.645	1.385316545170198
1056	0.15233	0.035077166621230005
1057	0.31143000000000004	0.4341184705193283
1058	0.035755	0.3984563619179952
1059	0.28417	0.14371689119275705
1060	1.2324700000000002	1.7098843582697414
1061	2.4216	2.4778067055644093
1062	0.5317	0.4576610411677047
1063	0.10646	0.17299604107981625
1064	0.59263	0.5204409120026146
1065	0.55852	1.385316545170198
1066	0.14517	0.035077166621230005
1067	0.49117	0.4341184705193283
1068	0.08553	0.3984563619179952
1069	0.3718	0.14371689119275705
1070	1.15608	1.7098843582697414
1071	2.4059	2.4778067055644093
1072	0.6621199999999999	0.4576610411677047
1073	0.10196	0.17299604107981625
1074	0.73256	0.5204409120026146
1075	1.375	1.385316545170198
1076	0.025809	0.035077166621230005
1077	0.48969	0.4341184705193283
1078	0.33766	0.3984563619179952
1079	0.27688	0.14371689119275705
1080	1.06514	1.7098843582697414
1081	2.6433	2.4778067055644093
1082	0.14275	0.4576610411677047
1083	0.3522	0.17299604107981625
1084	1.1824	0.5204409120026146
1085	1.7363	1.385316545170198
1086	0.11905	0.035077166621230005
1087	0.57428	0.4341184705193283
1088	0.36313	0.3984563619179952
1089	0.38705	0.14371689119275705
1090	1.83801	1.7098843582697414
1091	2.4728	2.4778067055644093
1092	0.53785	0.4576610411677047
1093	0.076814	0.17299604107981625
1094	0.5551	0.5204409120026146
1095	1.1846	1.385316545170198
1096	0.22539	0.035077166621230005
1097	0.50293	0.4341184705193283
1098	0.15729	0.3984563619179952
1099	0.19281	0.14371689119275705
1100	1.87965	1.7098843582697414
1101	2.3937	2.4778067055644093
1102	0.61774	0.4576610411677047
1103	0.19345	0.17299604107981625
1104	0.69698	0.5204409120026146
1105	0.97086	1.385316545170198
1106	0.15775	0.035077166621230005
1107	0.38767	0.4341184705193283
1108	0.5259	0.3984563619179952
1109	0.15131	0.14371689119275705
1110	1.73961	1.7098843582697414
1111	2.2279	2.4778067055644093
1112	0.46174	0.4576610411677047
1113	0.18702	0.17299604107981625
1114	0.9000600000000001	0.5204409120026146
1115	1.0017	1.385316545170198
1116	0.017437	0.035077166621230005
1117	0.25912	0.4341184705193283
1118	0.15441	0.3984563619179952
1119	0.066137	0.14371689119275705
1120		1.7098843582697414
1121	2.3843	2.4778067055644093
1122	0.1202	0.4576610411677047
1123	0.3624	0.17299604107981625
1124	0.23464	0.5204409120026146
1125	1.9971	1.385316545170198
1126	0.13846	0.035077166621230005
1127	0.47268	0.4341184705193283
1128	0.6412100000000001	0.3984563619179952
1129	0.13972	0.14371689119275705
1130		1.7098843582697414
1131	2.4368	2.4778067055644093
1132	0.49336	0.4576610411677047
1133	0.25576	0.17299604107981625
1134	0.76737	0.5204409120026146
1135	1.1263	1.385316545170198
1136	0.24277	0.035077166621230005
1137	0.38935	0.4341184705193283
1138	0.44244	0.3984563619179952
1139	0.45414	0.14371689119275705
1140		1.7098843582697414
1141	2.9944	2.4778067055644093
1142	0.56804	0.4576610411677047
1143	0.19464	0.17299604107981625
1144	0.76095	0.5204409120026146
1145	1.3771	1.385316545170198
1146	0.18318	0.035077166621230005
1147	0.33296	0.4341184705193283
1148	0.49524	0.3984563619179952
1149	0.10453	0.14371689119275705
1150	1.08662	1.7098843582697414
1151	2.5012	2.4778067055644093
1152	0.45734	0.4576610411677047
1153	0.11671	0.17299604107981625
1154	0.54504	0.5204409120026146
1155	1.4252	1.385316545170198
1156	0.01832	0.035077166621230005
1157	0.47717	0.4341184705193283
1158	0.37738	0.3984563619179952
1159	0.22511	0.14371689119275705
1160	2.67709	1.7098843582697414
1161	2.342	2.4778067055644093
1162	0.82952	0.4576610411677047
1163	1.0571	0.17299604107981625
1164	0.015388999999999996	0.5204409120026146
1165		1.385316545170198
1166	0.17833	0.035077166621230005
1167	0.2669	0.4341184705193283
1168	0.31108	0.3984563619179952
1169	0.55621	0.14371689119275705
1170	1.80148	1.7098843582697414
1171	2.1607	2.4778067055644093
1172	0.51583	0.4576610411677047
1173	0.50893	0.17299604107981625
1174	0.48739	0.5204409120026146
1175	1.9587	1.385316545170198
1176	0.06339199999999999	0.035077166621230005
1177	0.3618	0.4341184705193283
1178	0.11691	0.3984563619179952
1179	0.17868	0.14371689119275705
1180	1.88077	1.7098843582697414
1181	2.2825	2.4778067055644093
1182	0.44002	0.4576610411677047
1183	0.13502999999999998	0.17299604107981625
1184	0.39985	0.5204409120026146
1185	0.95084	1.385316545170198
1186	0.01314	0.035077166621230005
1187	0.40589	0.4341184705193283
1188	0.082389	0.3984563619179952
1189	0.30645	0.14371689119275705
1190	1.72665	1.7098843582697414
1191	2.3781	2.4778067055644093
1192	0.33236	0.4576610411677047
1193	0.0045	0.17299604107981625
1194	0.2577	0.5204409120026146
1195	1.7116	1.385316545170198
1196	0.16468	0.035077166621230005
1197	0.40828	0.4341184705193283
1198	0.64405	0.3984563619179952
1199	0.25928	0.14371689119275705
1200		1.7098843582697414
1201	2.1037	2.4778067055644093
1202	0.36192	0.4576610411677047
1203	0.31203000000000003	0.17299604107981625
1204	0.3355	0.5204409120026146
1205		1.385316545170198
1206	0.1406	0.035077166621230005
1207	0.40321	0.4341184705193283
1208	0.17736	0.3984563619179952
1209	0.06761	0.14371689119275705
1210	1.57786	1.7098843582697414
1211	2.5723	2.4778067055644093
1212	0.61954	0.4576610411677047
1213	0.043588	0.17299604107981625
1214	0.8355899999999999	0.5204409120026146
1215	1.6551	1.385316545170198
1216	0.02569	0.035077166621230005
1217	0.29552	0.4341184705193283
1218	0.6964899999999999	0.3984563619179952
1219	0.28415	0.14371689119275705
1220	1.50581	1.7098843582697414
1221	2.4638	2.4778067055644093
1222	0.7651100000000001	0.4576610411677047
1223	0.5574600000000001	0.17299604107981625
1224	0.51675	0.5204409120026146
1225	1.7337	1.385316545170198
1226	0.08472	0.035077166621230005
1227	0.43605	0.4341184705193283
1228	0.68547	0.3984563619179952
1229	0.12341	0.14371689119275705
1230	1.44222	1.7098843582697414
1231	2.3165	2.4778067055644093
1232	0.73298	0.4576610411677047
1233	0.10887	0.17299604107981625
1234	0.62632	0.5204409120026146
1235	1.8172	1.385316545170198
1236	0.076013	0.035077166621230005
1237	0.41564	0.4341184705193283
1238	0.40561	0.3984563619179952
1239	0.24274	0.14371689119275705
1240	1.63629	1.7098843582697414
1241	2.7751	2.4778067055644093
1242	0.6050800000000001	0.4576610411677047
1243	0.55508	0.17299604107981625
1244	0.28461	0.5204409120026146
1245		1.385316545170198
1246	0.1071	0.035077166621230005
1247	0.42683	0.4341184705193283
1248	0.22809	0.3984563619179952
1249		0.14371689119275705
1250	1.14711	1.7098843582697414
1251	2.5416	2.4778067055644093
1252	0.57009	0.4576610411677047
1253	0.07280299999999999	0.17299604107981625
1254	0.58138	0.5204409120026146
1255	1.3928	1.385316545170198
1256	0.029053	0.035077166621230005
1257	0.54743	0.4341184705193283
1258	0.79838	0.3984563619179952
1259	0.024271	0.14371689119275705
1260	2.02081	1.7098843582697414
1261	2.5728	2.4778067055644093
1262	0.22801	0.4576610411677047
1263	0.32437	0.17299604107981625
1264	0.31911	0.5204409120026146
1265	1.4764	1.385316545170198
1266	0.19998	0.035077166621230005
1267	0.46979	0.4341184705193283
1268	0.11921	0.3984563619179952
1269	0.078225	0.14371689119275705
1270	1.80438	1.7098843582697414
1271	2.5998	2.4778067055644093
1272	0.39906	0.4576610411677047
1273	0.17097	0.17299604107981625
1274	0.3321	0.5204409120026146
1275	1.5502	1.385316545170198
1276	0.1664	0.035077166621230005
1277	0.42207	0.4341184705193283
1278	0.36904	0.3984563619179952
1279	0.0079112	0.14371689119275705
1280	0.96961	1.7098843582697414
1281	2.5125	2.4778067055644093
1282	0.3841	0.4576610411677047
1283	0.1108	0.17299604107981625
1284	0.17128	0.5204409120026146
1285	0.98425	1.385316545170198
1286	0.08885900000000001	0.035077166621230005
1287	0.41939	0.4341184705193283
1288	0.50616	0.3984563619179952
1289	0.41994	0.14371689119275705
1290	2.0444400000000003	1.7098843582697414
1291	2.7292	2.4778067055644093
1292	0.5874699999999999	0.4576610411677047
1293	0.18691	0.17299604107981625
1294	0.29277	0.5204409120026146
1295	1.62	1.385316545170198
1296	0.1992	0.035077166621230005
1297	0.4332	0.4341184705193283
1298	0.5717899999999999	0.3984563619179952
1299	0.24256	0.14371689119275705
1300	1.55877	1.7098843582697414
1301	2.5151	2.4778067055644093
1302	0.34146	0.4576610411677047
1303	0.23014	0.17299604107981625
1304	0.75061	0.5204409120026146
1305	1.5524	1.385316545170198
1306	0.08915	0.035077166621230005
1307	0.39414	0.4341184705193283
1308	0.5885699999999999	0.3984563619179952
1309	0.38749	0.14371689119275705
1310	2.37757	1.7098843582697414
1311	2.3134	2.4778067055644093
1312	0.25592	0.4576610411677047
1313	0.062429999999999986	0.17299604107981625
1314	0.6129899999999999	0.5204409120026146
1315	1.4286	1.385316545170198
1316	0.06845	0.035077166621230005
1317	0.40698	0.4341184705193283
1318	0.26699	0.3984563619179952
1319	0.090509	0.14371689119275705
1320		1.7098843582697414
1321	3.3912	2.4778067055644093
1322	0.45425	0.4576610411677047
1323	0.12307	0.17299604107981625
1324	1.4499	0.5204409120026146
1325		1.385316545170198
1326	0.10242	0.035077166621230005
1327	0.16359	0.4341184705193283
1328	0.35998	0.3984563619179952
1329	0.15325999999999998	0.14371689119275705
1330	2.1451	1.7098843582697414
1331	2.3964	2.4778067055644093
1332	0.41117	0.4576610411677047
1333	0.48312	0.17299604107981625
1334	0.67151	0.5204409120026146
1335		1.385316545170198
1336	0.13517	0.035077166621230005
1337	0.3246	0.4341184705193283
1338	0.041365	0.3984563619179952
1339	0.09515	0.14371689119275705
1340	1.92644	1.7098843582697414
1341	2.1531	2.4778067055644093
1342	0.58415	0.4576610411677047
1343	0.15367	0.17299604107981625
1344	0.70662	0.5204409120026146
1345	1.1687	1.385316545170198
1346	0.3517	0.035077166621230005
1347	0.32011	0.4341184705193283
1348	0.5276	0.3984563619179952
1349	0.12120999999999997	0.14371689119275705
1350	1.56911	1.7098843582697414
1351	2.4815	2.4778067055644093
1352	0.56382	0.4576610411677047
1353	0.16907	0.17299604107981625
1354	0.4748	0.5204409120026146
1355	1.4229	1.385316545170198
1356	0.16376	0.035077166621230005
1357	0.33659	0.4341184705193283
1358	0.39949	0.3984563619179952
1359	0.16021	0.14371689119275705
1360	2.12151	1.7098843582697414
1361	2.4615	2.4778067055644093
1362	0.18548	0.4576610411677047
1363	0.18217	0.17299604107981625
1364	1.9648	0.5204409120026146
1365	1.6026	1.385316545170198
1366	0.22101	0.035077166621230005
1367	0.46304	0.4341184705193283
1368	0.28464	0.3984563619179952
1369	0.36927	0.14371689119275705
1370	2.76494	1.7098843582697414
1371	2.4572	2.4778067055644093
1372	0.4956100000000001	0.4576610411677047
1373	0.20508	0.17299604107981625
1374	0.32166	0.5204409120026146
1375	1.8832	1.385316545170198
1376	0.19475	0.035077166621230005
1377	0.53957	0.4341184705193283
1378	0.33216	0.3984563619179952
1379	0.82458	0.14371689119275705
1380	1.47019	1.7098843582697414
1381	2.3614	2.4778067055644093
1382	0.23264	0.4576610411677047
1383	0.43284	0.17299604107981625
1384	0.8339	0.5204409120026146
1385	1.5061	1.385316545170198
1386	0.085664	0.035077166621230005
1387	0.55807	0.4341184705193283
1388	0.34069	0.3984563619179952
1389	0.13483	0.14371689119275705
1390	1.6878	1.7098843582697414
1391	2.3966	2.4778067055644093
1392	0.46116	0.4576610411677047
1393	0.21472	0.17299604107981625
1394	0.77081	0.5204409120026146
1395	1.9102	1.385316545170198
1396	0.01175	0.035077166621230005
1397	0.47106	0.4341184705193283
1398	0.41823	0.3984563619179952
1399	0.0063437	0.14371689119275705
1400	1.0074	1.7098843582697414
1401	2.5535	2.4778067055644093
1402	0.38511	0.4576610411677047
1403	0.83104	0.17299604107981625
1404	0.75093	0.5204409120026146
1405		1.385316545170198
1406	0.033351	0.035077166621230005
1407	0.31209000000000003	0.4341184705193283
1408	1.0107	0.3984563619179952
1409	0.56576	0.14371689119275705
1410	1.69741	1.7098843582697414
1411	2.5837	2.4778067055644093
1412	0.6593	0.4576610411677047
1413	0.046782	0.17299604107981625
1414	0.85285	0.5204409120026146
1415	1.3244	1.385316545170198
1416	0.11267	0.035077166621230005
1417	0.43078	0.4341184705193283
1418	0.62162	0.3984563619179952
1419	0.07638500000000001	0.14371689119275705
1420	2.80041	1.7098843582697414
1421	2.3213	2.4778067055644093
1422	0.57526	0.4576610411677047
1423	0.12456	0.17299604107981625
1424	0.38067	0.5204409120026146
1425		1.385316545170198
1426	0.08523700000000001	0.035077166621230005
1427	0.42766	0.4341184705193283
1428	0.44983	0.3984563619179952
1429	0.14674	0.14371689119275705
1430	1.43733	1.7098843582697414
1431	2.3491	2.4778067055644093
1432	0.38944	0.4576610411677047
1433	0.10421	0.17299604107981625
1434	0.8412799999999999	0.5204409120026146
1435	1.1589	1.385316545170198
1436	0.020692	0.035077166621230005
1437	0.4646	0.4341184705193283
1438	0.22049	0.3984563619179952
1439	0.041113	0.14371689119275705
1440		1.7098843582697414
1441	2.7521	2.4778067055644093
1442	0.043	0.4576610411677047
1443	0.25614000000000003	0.17299604107981625
1444	0.88785	0.5204409120026146
1445		1.385316545170198
1446	0.11477	0.035077166621230005
1447	0.56374	0.4341184705193283
1448	0.14029	0.3984563619179952
1449	0.01017	0.14371689119275705
1450	2.38016	1.7098843582697414
1451	2.4193	2.4778067055644093
1452	0.5391	0.4576610411677047
1453	0.034753	0.17299604107981625
1454	0.51532	0.5204409120026146
1455	1.3119999999999998	1.385316545170198
1456	0.019482	0.035077166621230005
1457	0.42182	0.4341184705193283
1458	0.23655	0.3984563619179952
1459	0.27341	0.14371689119275705
1460		1.7098843582697414
1461	2.441	2.4778067055644093
1462	0.41161	0.4576610411677047
1463	0.47222	0.17299604107981625
1464	0.31304	0.5204409120026146
1465	1.3648	1.385316545170198
1466	0.00518	0.035077166621230005
1467	0.49343	0.4341184705193283
1468	0.20054	0.3984563619179952
1469	0.08782999999999999	0.14371689119275705
1470	1.24942	1.7098843582697414
1471	2.3764	2.4778067055644093
1472	0.34335	0.4576610411677047
1473	0.08521000000000001	0.17299604107981625
1474	0.47025	0.5204409120026146
1475	1.0541	1.385316545170198
1476	0.011268	0.035077166621230005
1477	0.42358	0.4341184705193283
1478	0.13515	0.3984563619179952
1479	0.21718	0.14371689119275705
1480		1.7098843582697414
1481	1.3526	2.4778067055644093
1482	0.19195	0.4576610411677047
1483	0.74663	0.17299604107981625
1484	0.30346	0.5204409120026146
1485	0.7974600000000001	1.385316545170198
1486	0.0024873	0.035077166621230005
1487	0.56038	0.4341184705193283
1488	0.8095899999999999	0.3984563619179952
1489	0.054282	0.14371689119275705
1490		1.7098843582697414
1491	2.0792	2.4778067055644093
1492	0.46199	0.4576610411677047
1493	0.13464	0.17299604107981625
1494	0.58768	0.5204409120026146
1495	1.6185	1.385316545170198
1496	0.12174	0.035077166621230005
1497	0.50753	0.4341184705193283
1498	0.18735	0.3984563619179952
1499	0.42737	0.14371689119275705
1500	1.40645	1.7098843582697414
1501	2.7672	2.4778067055644093
1502	0.36706	0.4576610411677047
1503	0.031389999999999994	0.17299604107981625
1504	0.4401100000000001	0.5204409120026146
1505	1.7601	1.385316545170198
1506	0.092573	0.035077166621230005
1507	0.57862	0.4341184705193283
1508	0.12815	0.3984563619179952
1509	0.44718	0.14371689119275705
1510	1.88551	1.7098843582697414
1511	2.4095	2.4778067055644093
1512	0.4099100000000001	0.4576610411677047
1513	0.25478	0.17299604107981625
1514	0.72012	0.5204409120026146
1515	1.5922	1.385316545170198
1516	0.10991	0.035077166621230005
1517	0.4976600000000001	0.4341184705193283
1518	0.1968	0.3984563619179952
1519	0.45928	0.14371689119275705
1520		1.7098843582697414
1521	2.9158	2.4778067055644093
1522	0.32883	0.4576610411677047
1523	0.080937	0.17299604107981625
1524	1.1708	0.5204409120026146
1525	1.7896	1.385316545170198
1526	0.07917	0.035077166621230005
1527	0.10149	0.4341184705193283
1528	1.6316	0.3984563619179952
1529	0.5252100000000001	0.14371689119275705
1530	1.5206	1.7098843582697414
1531	2.0272	2.4778067055644093
1532	0.53468	0.4576610411677047
1533	0.35784	0.17299604107981625
1534	0.42472	0.5204409120026146
1535	0.8897	1.385316545170198
1536	0.1038	0.035077166621230005
1537	0.25438	0.4341184705193283
1538	0.75932	0.3984563619179952
1539	0.21106	0.14371689119275705
1540	1.65067	1.7098843582697414
1541	2.4129	2.4778067055644093
1542	0.2999	0.4576610411677047
1543	0.50052	0.17299604107981625
1544	0.8173	0.5204409120026146
1545	1.1592	1.385316545170198
1546	0.13324	0.035077166621230005
1547	0.52937	0.4341184705193283
1548	0.38568	0.3984563619179952
1549	0.04395	0.14371689119275705
1550	1.5456299999999998	1.7098843582697414
1551	2.4601	2.4778067055644093
1552	0.50618	0.4576610411677047
1553	0.18162	0.17299604107981625
1554	0.43542	0.5204409120026146
1555	0.7229399999999999	1.385316545170198
1556	0.20812	0.035077166621230005
1557	0.25392	0.4341184705193283
1558	0.22565	0.3984563619179952
1559	0.15242	0.14371689119275705
1560	2.16786	1.7098843582697414
1561	2.8251	2.4778067055644093
1562	0.95871	0.4576610411677047
1563	0.90888	0.17299604107981625
1564	0.64872	0.5204409120026146
1565	1.9195	1.385316545170198
1566	0.3297	0.035077166621230005
1567	0.57773	0.4341184705193283
1568	0.032072	0.3984563619179952
1569	0.13205	0.14371689119275705
1570	1.47375	1.7098843582697414
1571	2.5031	2.4778067055644093
1572	0.39574	0.4576610411677047
1573	0.24365	0.17299604107981625
1574	0.65855	0.5204409120026146
1575	1.6395	1.385316545170198
1576	0.44196	0.035077166621230005
1577	0.39757	0.4341184705193283
1578	0.13299	0.3984563619179952
1579	0.0071509	0.14371689119275705
1580	1.7552	1.7098843582697414
1581	2.8115	2.4778067055644093
1582	0.46319	0.4576610411677047
1583	0.37218	0.17299604107981625
1584	0.6218899999999999	0.5204409120026146
1585	1.5728	1.385316545170198
1586	0.13835	0.035077166621230005
1587	0.40349	0.4341184705193283
1588	0.41871	0.3984563619179952
1589	0.14325	0.14371689119275705
1590	1.69772	1.7098843582697414
1591	2.4308	2.4778067055644093
1592	0.5461600000000001	0.4576610411677047
1593	0.04839	0.17299604107981625
1594	0.56858	0.5204409120026146
1595	1.2945	1.385316545170198
1596	0.11087	0.035077166621230005
1597	0.27926	0.4341184705193283
1598	0.46865	0.3984563619179952
1599	0.14653	0.14371689119275705
1600		1.7098843582697414
1601	2.0176	2.4778067055644093
1602	0.60585	0.4576610411677047
1603	0.06162	0.17299604107981625
1604	0.1624	0.5204409120026146
1605	0.69539	1.385316545170198
1606	0.32582	0.035077166621230005
1607	0.7064	0.4341184705193283
1608	0.32835	0.3984563619179952
1609	0.42648	0.14371689119275705
1610	0.36596	1.7098843582697414
1611	2.4239	2.4778067055644093
1612	0.65813	0.4576610411677047
1613	0.14538	0.17299604107981625
1614	0.65914	0.5204409120026146
1615	1.7642	1.385316545170198
1616	0.040187	0.035077166621230005
1617	0.42031	0.4341184705193283
1618	0.073144	0.3984563619179952
1619	0.55019	0.14371689119275705
1620	2.31832	1.7098843582697414
1621	2.7706	2.4778067055644093
1622	0.4184600000000001	0.4576610411677047
1623	0.045123	0.17299604107981625
1624	0.46335	0.5204409120026146
1625	1.3895	1.385316545170198
1626	0.044163	0.035077166621230005
1627	0.37287	0.4341184705193283
1628	0.29226	0.3984563619179952
1629	0.11736	0.14371689119275705
1630	1.98256	1.7098843582697414
1631	2.5241	2.4778067055644093
1632	0.60598	0.4576610411677047
1633	0.29339	0.17299604107981625
1634	0.41016	0.5204409120026146
1635	1.5128	1.385316545170198
1636	0.12574000000000002	0.035077166621230005
1637	0.56085	0.4341184705193283
1638	0.39016	0.3984563619179952
1639	0.16022999999999998	0.14371689119275705
1640		1.7098843582697414
1641	2.6387	2.4778067055644093
1642	0.38318	0.4576610411677047
1643	0.3358	0.17299604107981625
1644	1.0318	0.5204409120026146
1645	2.2068	1.385316545170198
1646	0.27121	0.035077166621230005
1647	0.41957	0.4341184705193283
1648	0.6086	0.3984563619179952
1649	0.8210799999999999	0.14371689119275705
1650	0.7944899999999999	1.7098843582697414
1651	1.9218	2.4778067055644093
1652	0.16885999999999998	0.4576610411677047
1653	0.16022	0.17299604107981625
1654	0.6298600000000001	0.5204409120026146
1655	1.2785	1.385316545170198
1656	0.063475	0.035077166621230005
1657	0.23541	0.4341184705193283
1658	0.66632	0.3984563619179952
1659	0.18782	0.14371689119275705
1660	1.59101	1.7098843582697414
1661	2.4527	2.4778067055644093
1662	0.41217	0.4576610411677047
1663	0.026178	0.17299604107981625
1664	0.79813	0.5204409120026146
1665	1.2817	1.385316545170198
1666	0.03088	0.035077166621230005
1667	0.3714	0.4341184705193283
1668	0.32302	0.3984563619179952
1669	0.033168	0.14371689119275705
1670	1.54676	1.7098843582697414
1671	2.7197	2.4778067055644093
1672	0.58802	0.4576610411677047
1673	0.01889	0.17299604107981625
1674	0.30905	0.5204409120026146
1675	2.1253	1.385316545170198
1676	0.04169	0.035077166621230005
1677	0.51932	0.4341184705193283
1678	0.30035	0.3984563619179952
1679	0.19212	0.14371689119275705
1680	2.75351	1.7098843582697414
1681	3.0343	2.4778067055644093
1682	0.63135	0.4576610411677047
1683	0.35245	0.17299604107981625
1684	0.31298000000000004	0.5204409120026146
1685		1.385316545170198
1686	0.060038	0.035077166621230005
1687	0.57399	0.4341184705193283
1688	1.6028	0.3984563619179952
1689	1.6244	0.14371689119275705
1690	1.59263	1.7098843582697414
1691	2.26	2.4778067055644093
1692	0.64705	0.4576610411677047
1693	0.047362	0.17299604107981625
1694	0.7532300000000001	0.5204409120026146
1695	0.80988	1.385316545170198
1696	0.065947	0.035077166621230005
1697	0.4916100000000001	0.4341184705193283
1698	0.25697	0.3984563619179952
1699	0.03153	0.14371689119275705
1700	1.99795	1.7098843582697414
1701	2.7267	2.4778067055644093
1702	0.40196	0.4576610411677047
1703	0.27547	0.17299604107981625
1704	0.44462	0.5204409120026146
1705	1.8937	1.385316545170198
1706	0.032712	0.035077166621230005
1707	0.37744	0.4341184705193283
1708	0.16015	0.3984563619179952
1709	0.04492	0.14371689119275705
1710	1.74887	1.7098843582697414
1711	2.6638	2.4778067055644093
1712	0.50938	0.4576610411677047
1713	0.09927	0.17299604107981625
1714	0.5926100000000001	0.5204409120026146
1715	1.1376	1.385316545170198
1716	0.13674	0.035077166621230005
1717	0.4704100000000001	0.4341184705193283
1718	0.36854	0.3984563619179952
1719	0.48879	0.14371689119275705
1720		1.7098843582697414
1721	2.1628	2.4778067055644093
1722	0.79213	0.4576610411677047
1723	0.47273	0.17299604107981625
1724	0.25838	0.5204409120026146
1725	0.89513	1.385316545170198
1726	0.14987	0.035077166621230005
1727	0.22787	0.4341184705193283
1728	0.04464	0.3984563619179952
1729	0.3859	0.14371689119275705
1730	1.87891	1.7098843582697414
1731	2.3731	2.4778067055644093
1732	0.56415	0.4576610411677047
1733	0.42333	0.17299604107981625
1734		0.5204409120026146
1735	1.6687	1.385316545170198
1736	0.03127	0.035077166621230005
1737	0.29048	0.4341184705193283
1738	0.39007	0.3984563619179952
1739	0.61637	0.14371689119275705
1740	1.6401400000000002	1.7098843582697414
1741	2.7448	2.4778067055644093
1742	0.47929	0.4576610411677047
1743	0.09666	0.17299604107981625
1744	0.57697	0.5204409120026146
1745	1.5267	1.385316545170198
1746	0.03358	0.035077166621230005
1747	0.33602	0.4341184705193283
1748	0.26502	0.3984563619179952
1749	0.50193	0.14371689119275705
1750	1.72574	1.7098843582697414
1751	2.4033	2.4778067055644093
1752	0.29396	0.4576610411677047
1753	0.20156	0.17299604107981625
1754	0.40958	0.5204409120026146
1755	1.2838	1.385316545170198
1756	0.0016300000000000002	0.035077166621230005
1757	0.45254	0.4341184705193283
1758	0.93358	0.3984563619179952
1759	0.22321	0.14371689119275705
1760		1.7098843582697414
1761	2.1379	2.4778067055644093
1762	0.4184600000000001	0.4576610411677047
1763	0.29062	0.17299604107981625
1764	0.6715	0.5204409120026146
1765		1.385316545170198
1766	0.081947	0.035077166621230005
1767	0.32841	0.4341184705193283
1768	0.5724100000000001	0.3984563619179952
1769	0.34518000000000004	0.14371689119275705
1770	2.17693	1.7098843582697414
1771	2.3551	2.4778067055644093
1772	0.45204	0.4576610411677047
1773	0.0052726000000000006	0.17299604107981625
1774	0.38548	0.5204409120026146
1775	1.7928	1.385316545170198
1776	0.04588	0.035077166621230005
1777	0.40793	0.4341184705193283
1778	0.29162	0.3984563619179952
1779	0.57673	0.14371689119275705
1780	1.92065	1.7098843582697414
1781	2.6421	2.4778067055644093
1782	0.45539	0.4576610411677047
1783	0.20786	0.17299604107981625
1784	0.67067	0.5204409120026146
1785	1.6104	1.385316545170198
1786	0.06475	0.035077166621230005
1787	0.46669	0.4341184705193283
1788	0.21244	0.3984563619179952
1789	0.23755	0.14371689119275705
1790	1.21531	1.7098843582697414
1791	2.327	2.4778067055644093
1792	0.47082	0.4576610411677047
1793	0.11708	0.17299604107981625
1794	0.67971	0.5204409120026146
1795	1.242	1.385316545170198
1796	0.14745999999999998	0.035077166621230005
1797	0.42535	0.4341184705193283
1798	0.48452	0.3984563619179952
1799	0.03951	0.14371689119275705
1800	2.99008	1.7098843582697414
1801	2.3393	2.4778067055644093
1802	0.19242	0.4576610411677047
1803	0.31494	0.17299604107981625
1804	0.59585	0.5204409120026146
1805		1.385316545170198
1806	0.02665	0.035077166621230005
1807	0.29045	0.4341184705193283
1808	0.18825	0.3984563619179952
1809	0.27853	0.14371689119275705
1810	2.22712	1.7098843582697414
1811	2.2723	2.4778067055644093
1812	0.45945	0.4576610411677047
1813	0.19494	0.17299604107981625
1814	0.16071	0.5204409120026146
1815		1.385316545170198
1816	0.23709	0.035077166621230005
1817	0.22516	0.4341184705193283
1818	0.19502	0.3984563619179952
1819	0.19859	0.14371689119275705
1820	1.86603	1.7098843582697414
1821	2.4714	2.4778067055644093
1822	0.54009	0.4576610411677047
1823	0.38488	0.17299604107981625
1824	0.80472	0.5204409120026146
1825		1.385316545170198
1826	0.07091	0.035077166621230005
1827	0.43269	0.4341184705193283
1828	0.05195	0.3984563619179952
1829	0.23646	0.14371689119275705
1830	1.9154400000000005	1.7098843582697414
1831	2.5004	2.4778067055644093
1832	0.39916	0.4576610411677047
1833	0.005529999999999999	0.17299604107981625
1834	0.67903	0.5204409120026146
1835	1.9271	1.385316545170198
1836	0.05414	0.035077166621230005
1837	0.34586	0.4341184705193283
1838	0.53823	0.3984563619179952
1839	0.15929	0.14371689119275705
1840	2.34835	1.7098843582697414
1841	2.7110000000000003	2.4778067055644093
1842	0.5113	0.4576610411677047
1843	0.50252	0.17299604107981625
1844	0.69624	0.5204409120026146
1845		1.385316545170198
1846	0.03584	0.035077166621230005
1847	0.49795	0.4341184705193283
1848	0.69003	0.3984563619179952
1849	0.18843	0.14371689119275705
1850	2.0912900000000003	1.7098843582697414
1851	2.2721	2.4778067055644093
1852	0.26408000000000004	0.4576610411677047
1853	0.087791	0.17299604107981625
1854	0.6742199999999999	0.5204409120026146
1855	0.80343	1.385316545170198
1856	0.17528	0.035077166621230005
1857	0.4612	0.4341184705193283
1858	0.60219	0.3984563619179952
1859	0.038568	0.14371689119275705
1860	2.21915	1.7098843582697414
1861	2.5991	2.4778067055644093
1862	0.43358	0.4576610411677047
1863	0.35551	0.17299604107981625
1864	0.51785	0.5204409120026146
1865	0.8396100000000001	1.385316545170198
1866	0.18437	0.035077166621230005
1867	0.50298	0.4341184705193283
1868	0.24625	0.3984563619179952
1869	0.32946	0.14371689119275705
1870	2.25799	1.7098843582697414
1871	2.4184	2.4778067055644093
1872	0.54618	0.4576610411677047
1873	0.09054	0.17299604107981625
1874	0.52257	0.5204409120026146
1875	1.6676	1.385316545170198
1876	0.21698	0.035077166621230005
1877	0.46654	0.4341184705193283
1878	0.47939	0.3984563619179952
1879	0.11309	0.14371689119275705
1880	1.40454	1.7098843582697414
1881	2.8023	2.4778067055644093
1882	0.5695100000000001	0.4576610411677047
1883	0.28229	0.17299604107981625
1884	0.2115	0.5204409120026146
1885	1.2599	1.385316545170198
1886	0.19977	0.035077166621230005
1887	0.56265	0.4341184705193283
1888	0.082354	0.3984563619179952
1889	0.28633000000000003	0.14371689119275705
1890	1.97949	1.7098843582697414
1891	2.5098	2.4778067055644093
1892	0.69733	0.4576610411677047
1893	0.5461	0.17299604107981625
1894	0.28569	0.5204409120026146
1895	1.5434	1.385316545170198
1896	0.06704299999999999	0.035077166621230005
1897	0.29886	0.4341184705193283
1898	0.00034422	0.3984563619179952
1899	0.33153	0.14371689119275705
1900	2.68951	1.7098843582697414
1901	2.5325	2.4778067055644093
1902	0.46825	0.4576610411677047
1903	0.17851	0.17299604107981625
1904	0.39789	0.5204409120026146
1905	1.2515	1.385316545170198
1906	0.07049	0.035077166621230005
1907	0.46024	0.4341184705193283
1908	0.3922	0.3984563619179952
1909	0.15472	0.14371689119275705
1910	1.46106	1.7098843582697414
1911	2.4308	2.4778067055644093
1912	0.52305	0.4576610411677047
1913	0.033122000000000006	0.17299604107981625
1914	0.52222	0.5204409120026146
1915	1.3937	1.385316545170198
1916	0.10935	0.035077166621230005
1917	0.39487	0.4341184705193283
1918	0.42514	0.3984563619179952
1919	0.37744	0.14371689119275705
1920	3.04286	1.7098843582697414
1921	3.0654	2.4778067055644093
1922	0.52963	0.4576610411677047
1923	0.76779	0.17299604107981625
1924	0.31923	0.5204409120026146
1925	1.5901	1.385316545170198
1926	0.18578	0.035077166621230005
1927	0.34719	0.4341184705193283
1928	0.35276	0.3984563619179952
1929	0.20691	0.14371689119275705
1930	1.7122099999999998	1.7098843582697414
1931	2.4037	2.4778067055644093
1932	0.58213	0.4576610411677047
1933	0.20016	0.17299604107981625
1934	0.55337	0.5204409120026146
1935	0.8004100000000001	1.385316545170198
1936	0.15317	0.035077166621230005
1937	0.42226	0.4341184705193283
1938	1.1146	0.3984563619179952
1939	0.017929	0.14371689119275705
1940	1.52779	1.7098843582697414
1941	2.5015	2.4778067055644093
1942	0.44224	0.4576610411677047
1943	0.20715	0.17299604107981625
1944	0.24768	0.5204409120026146
1945	1.5402	1.385316545170198
1946	0.10574	0.035077166621230005
1947	0.41678	0.4341184705193283
1948	0.20216	0.3984563619179952
1949	0.1957	0.14371689119275705
1950	1.43872	1.7098843582697414
1951	2.2515	2.4778067055644093
1952	0.41513	0.4576610411677047
1953	0.41987	0.17299604107981625
1954	0.6773899999999999	0.5204409120026146
1955	1.3159999999999998	1.385316545170198
1956	0.12863	0.035077166621230005
1957	0.34032	0.4341184705193283
1958	0.23354	0.3984563619179952
1959	0.09361	0.14371689119275705
1960	1.29451	1.7098843582697414
1961	2.5743	2.4778067055644093
1962	0.24192	0.4576610411677047
1963	0.49677	0.17299604107981625
1964	1.3067	0.5204409120026146
1965		1.385316545170198
1966	0.39312	0.035077166621230005
1967	0.319	0.4341184705193283
1968	0.73438	0.3984563619179952
1969	0.29982	0.14371689119275705
1970		1.7098843582697414
1971	2.736	2.4778067055644093
1972	0.81428	0.4576610411677047
1973	0.14284000000000002	0.17299604107981625
1974	0.058920000000000014	0.5204409120026146
1975	0.85059	1.385316545170198
1976	0.01694	0.035077166621230005
1977	0.35815	0.4341184705193283
1978	0.88651	0.3984563619179952
1979	0.00377	0.14371689119275705
1980	2.56744	1.7098843582697414
1981	2.9304	2.4778067055644093
1982	0.47442	0.4576610411677047
1983	0.1097	0.17299604107981625
1984	0.10255999999999997	0.5204409120026146
1985	1.8127	1.385316545170198
1986	0.06748	0.035077166621230005
1987	0.24815	0.4341184705193283
1988	0.44086	0.3984563619179952
1989	0.33238	0.14371689119275705
1990	2.12626	1.7098843582697414
1991	2.4697	2.4778067055644093
1992	0.3773	0.4576610411677047
1993	0.25988	0.17299604107981625
1994	0.59608	0.5204409120026146
1995	1.4959	1.385316545170198
1996	0.12095999999999997	0.035077166621230005
1997	0.4457600000000001	0.4341184705193283
1998	0.57582	0.3984563619179952
1999	0.33155	0.14371689119275705
